{
  "name": "glathida",
  "version": "3.1.0",
  "created": "2020-10-06",
  "id": "https://doi.org/10.5904/wgms-glathida-2020-10",
  "title": "Glacier Thickness Database (GlaThiDa)",
  "description": "Internationally collected, standardized dataset on glacier thickness from in-situ and remotely sensed observations, based on data submissions, literature review and airborne data from NASA’s Operation IceBridge.\n\nThe latest (development) version of GlaThiDa is available from https://gitlab.com/wgms/glathida. Since the data may contain errors, we strongly suggest performing quality checks and, in case of ambiguities, to contact us as well as the original investigators and agencies. Bug reports, data submissions, and other issues should be posted to the issue tracker at https://gitlab.com/wgms/glathida/-/issues.\n\nGlaThiDa is a contribution to the International Association of Cryospheric Sciences (IACS) working group on glacier ice thickness estimation (https://cryosphericsciences.org/activities/ice-thickness) chaired by Daniel Farinotti, Liss Marie Andreassen and Huilin Li.",
  "publications": [
    {
      "author": "Ethan Welty, Michael Zemp, Francisco Navarro, Matthias Huss, Johannes J. Fürst, Isabelle Gärtner-Roer, Johannes Landmann, Horst Machguth, Kathrin Naegeli, Liss M. Andreassen, Daniel Farinotti, Huilin Li, and GlaThiDa Contributors",
      "title": "Worldwide version-controlled database of glacier thickness observations",
      "journal": "Earth System Science Data",
      "year": 2020,
      "path": "https://doi.org/10.5194/essd-2020-87"
    },
    {
      "author": "Isabelle Gärtner-Roer, Kathrin Naegeli, Matthias Huss, Thomas Knecht, Horst Machguth, and Michael Zemp",
      "title": "A database of worldwide glacier thickness observations",
      "journal": "Global and Planetary Change",
      "year": 2014,
      "path": "https://doi.org/10.1016/j.gloplacha.2014.09.003"
    }
  ],
  "homepage": "https://www.gtn-g.ch/data_catalogue_glathida",
  "profile": "tabular-data-package",
  "publisher": "World Glacier Monitoring Service (WGMS)",
  "temporalCoverage": "1935/2018-07-26",
  "spatialCoverage": "Global",
  "languages": ["en"],
  "licenses": [
    {
      "title": "Creative Commons Attribution 4.0 International",
      "name": "CC-BY-4.0",
      "path": "https://creativecommons.org/licenses/by/4.0"
    }
  ],
  "citation": "GlaThiDa Consortium (2020): Glacier Thickness Database 3.1.0. World Glacier Monitoring Service, Zurich, Switzerland. DOI:[10.5904/wgms-glathida-2020-10](https://doi.org/10.5904/wgms-glathida-2020-10)\n\nTo cite a subset of the data, refer to the investigators and references listed in the database. For example – Dowdeswell et al. (2002), in: GlaThiDa Consortium (2020): Glacier Thickness Database 3.1.0. World Glacier Monitoring Service, Zurich, Switzerland. DOI:[10.5904/wgms-glathida-2020-10](https://doi.org/10.5904/wgms-glathida-2020-10)\n\nThe GlaThiDa Consortium consists of the authors and contributors listed below.",
  "contributors": [
    {
      "title": "Ethan Welty",
      "organization": "University of Colorado: Institute of Arctic and Alpine Research, United States",
      "role": "author"
    },
    {
      "title": "Francisco Navarro",
      "organization": "Universidad Politécnica de Madrid: Escuela Técnica Superior de Ingenieros de Telecomunicación (ETSIT), Spain",
      "role": "author"
    },
    {
      "title": "Johannes Fürst",
      "organization": "University of Erlangen–Nuremberg (FAU): Institute of Geography, Germany",
      "role": "author"
    },
    {
      "title": "Isabelle Gärtner-Roer",
      "organization": "University of Zürich, Switzerland",
      "role": "author"
    },
    {
      "title": "Johannes Landmann",
      "organization": "University of Zürich, Switzerland",
      "role": "author"
    },
    {
      "title": "Kathrin Naegeli",
      "organization": "University of Fribourg, Switzerland",
      "role": "author"
    },
    {
      "title": "Matthias Huss",
      "organization": "University of Fribourg: Laboratory of Hydraulics, Hydrology and Glaciology (VAW), Switzerland",
      "role": "author"
    },
    {
      "title": "Thomas Knecht",
      "organization": "University of Zürich, Switzerland",
      "role": "author"
    },
    {
      "title": "Horst Machguth",
      "organization": "University of Zürich, Switzerland",
      "role": "author"
    },
    {
      "title": "Michael Zemp",
      "organization": "University of Zürich, Switzerland",
      "role": "author"
    },
    {
      "title": "Jakob Abermann",
      "organization": "Asiaq Greenland Survey, Greenland",
      "role": "contributor"
    },
    {
      "title": "Songtao Ai",
      "organization": "Wuhan University, China",
      "role": "contributor"
    },
    {
      "title": "Brian Anderson",
      "organization": "Victoria University of Wellington: Antarctic Research Centre, New Zealand",
      "role": "contributor"
    },
    {
      "title": "Liss Marie Andreassen",
      "organization": "Norwegian Water Resources and Energy Directorate (NVE), Norway",
      "role": "contributor"
    },
    {
      "title": "Serguei M. Arkhipov",
      "organization": "Russian Academy of Sciences: Institute of Geography, Russia",
      "role": "contributor"
    },
    {
      "title": "Izumi Asaji",
      "organization": "Hokkaido University, Japan",
      "role": "contributor"
    },
    {
      "title": "Andreas Bauder",
      "organization": "Swiss Federal Institute of Technology (ETH)–Zürich: Laboratory of Hydraulics, Hydrology and Glaciology (VAW), Switzerland",
      "role": "contributor"
    },
    {
      "title": "Jostein Bakke",
      "organization": "University of Bergen: Department of Earth Sciences, Norway",
      "role": "contributor"
    },
    {
      "title": "Toby J. Benham",
      "organization": "Scott Polar Research Institute, United Kingdom",
      "role": "contributor"
    },
    {
      "title": "Douglas I. Benn",
      "organization": "University of Saint Andrews, United Kingdom",
      "role": "contributor"
    },
    {
      "title": "Daniel Binder",
      "organization": "Central Institute for Meteorology and Geodynamics (ZAMG), Austria",
      "role": "contributor"
    },
    {
      "title": "Elisa Bjerre",
      "organization": "Technical University of Denmark: Arctic Technology Centre, Denmark",
      "role": "contributor"
    },
    {
      "title": "Helgi Björnsson",
      "organization": "University of Iceland, Iceland",
      "role": "contributor"
    },
    {
      "title": "Norbert Blindow",
      "organization": "Institute for Geophysics, University of Münster, Germany",
      "role": "contributor"
    },
    {
      "title": "Pascal Bohleber",
      "organization": "Austrian Academy of Sciences (ÖAW): Institute for Interdisciplinary Mountain Research (IGF), Austria",
      "role": "contributor"
    },
    {
      "title": "Eliane Brändle",
      "organization": "University of Fribourg, Switzerland",
      "role": "contributor"
    },
    {
      "title": "Gino Casassa",
      "organization": "University of Magallanes: GAIA Antarctic Research Center (CIGA), Chile",
      "role": "contributor"
    },
    {
      "title": "Jorge Luis Ceballos",
      "organization": "Institute of Hydrology, Meteorology and Environmental Studies (IDEAM), Colombia",
      "role": "contributor"
    },
    {
      "title": "Julian A. Dowdeswell",
      "organization": "Scott Polar Research Institute, United Kingdom",
      "role": "contributor"
    },
    {
      "title": "Felipe Andres Echeverry Acosta",
      "role": "contributor"
    },
    {
      "title": "Hallgeir Elvehøy",
      "organization": "Norwegian Water Resources and Energy Directorate (NVE), Norway",
      "role": "contributor"
    },
    {
      "title": "Rune Engeset",
      "organization": "Norwegian Water Resources and Energy Directorate (NVE), Norway",
      "role": "contributor"
    },
    {
      "title": "Daniel Farinotti",
      "organization": "Swiss Federal Institute for Forest, Snow and Landscape Research (WSL), Switzerland",
      "role": "contributor"
    },
    {
      "title": "Andrea Fischer",
      "organization": "Institute of Interdisciplinary Mountain Research (IGF), Austria",
      "role": "contributor"
    },
    {
      "title": "Mauro Fischer",
      "organization": "University of Fribourg, Switzerland",
      "role": "contributor"
    },
    {
      "title": "Gwenn E. Flowers",
      "organization": "Simon Fraser University: Department of Earth Sciences, Canada",
      "role": "contributor"
    },
    {
      "title": "Erlend Førre",
      "organization": "University of Bergen: Department of Earth Sciences, Norway",
      "role": "contributor"
    },
    {
      "title": "Yoshiyuki Fujii",
      "organization": "National Institute of Polar Research, Japan",
      "role": "contributor"
    },
    {
      "title": "Johannes Fürst",
      "organization": "University of Erlangen–Nuremberg (FAU): Institute of Geography, Germany",
      "role": "contributor"
    },
    {
      "title": "Isabelle Gärtner-Roer",
      "organization": "University of Zürich, Switzerland",
      "role": "contributor"
    },
    {
      "title": "Mariusz Grabiec",
      "organization": "University of Silesia in Katowice, Poland",
      "role": "contributor"
    },
    {
      "title": "Jon Ove Hagen",
      "organization": "University of Oslo, Norway",
      "role": "contributor"
    },
    {
      "title": "Svein-Erik Hamran",
      "organization": "University of Oslo, Norway",
      "role": "contributor"
    },
    {
      "title": "Lea Hartl",
      "organization": "Institute of Interdisciplinary Mountain Research (IGF), Austria",
      "role": "contributor"
    },
    {
      "title": "Robert Hawley",
      "organization": "Dartmouth College, United States",
      "role": "contributor"
    },
    {
      "title": "Kay Helfricht",
      "organization": "Institute of Interdisciplinary Mountain Research (IGF), Austria",
      "role": "contributor"
    },
    {
      "title": "Matthias Huss",
      "organization": "University of Fribourg: Laboratory of Hydraulics, Hydrology and Glaciology (VAW), Switzerland",
      "role": "contributor"
    },
    {
      "title": "Elisabeth Isaksson",
      "organization": "Norwegian Polar Institute, Norway",
      "role": "contributor"
    },
    {
      "title": "Jacek Jania",
      "organization": "University of Silesia in Katowice, Poland",
      "role": "contributor"
    },
    {
      "title": "Robert W. Jacobel",
      "organization": "Saint Olaf College: Physics Department, United States",
      "role": "contributor"
    },
    {
      "title": "Michael Kennett",
      "organization": "Norwegian Water Resources and Energy Directorate (NVE), Norway",
      "role": "contributor"
    },
    {
      "title": "Bjarne Kjøllmoen",
      "organization": "Norwegian Water Resources and Energy Directorate (NVE), Norway",
      "role": "contributor"
    },
    {
      "title": "Thomas Knecht",
      "organization": "University of Zürich, Switzerland",
      "role": "contributor"
    },
    {
      "title": "Jack Kohler",
      "organization": "Norwegian Polar Institute, Norway",
      "role": "contributor"
    },
    {
      "title": "Vladimir Kotlyakov",
      "organization": "Russian Academy of Sciences: Institute of Geography, Russia",
      "role": "contributor"
    },
    {
      "title": "Steen Savstrup Kristensen",
      "organization": "Technical University of Denmark: Department of Space Research and Space Technology (DTU Space), Denmark",
      "role": "contributor"
    },
    {
      "title": "Stanislav Kutuzov",
      "organization": "University of Reading, United Kingdom",
      "role": "contributor"
    },
    {
      "title": "Johannes Landmann",
      "organization": "University of Zürich, Switzerland",
      "role": "contributor"
    },
    {
      "title": "Javier Lapazaran",
      "organization": "Universidad Politécnica de Madrid, Spain",
      "role": "contributor"
    },
    {
      "title": "Tron Laumann",
      "organization": "Norwegian Water Resources and Energy Directorate (NVE), Norway",
      "role": "contributor"
    },
    {
      "title": "Ivan Lavrentiev",
      "organization": "Russian Academy of Sciences: Institute of Geography, Russia",
      "role": "contributor"
    },
    {
      "title": "Huilin Li",
      "organization": "Chinese Academy of Sciences: Tianshan Glaciological Station, China",
      "role": "contributor"
    },
    {
      "title": "Katrin Lindbäck",
      "organization": "Norwegian Polar Institute, Norway",
      "role": "contributor"
    },
    {
      "title": "Peter Lisager",
      "organization": "Asiaq Greenland Survey, Greenland",
      "role": "contributor"
    },
    {
      "title": "Horst Machguth",
      "organization": "University of Zürich, Switzerland",
      "role": "contributor"
    },
    {
      "title": "Francisco Machío",
      "organization": "Universidad Internacional de La Rioja (UNIR), Spain",
      "role": "contributor"
    },
    {
      "title": "Gerhard Markl",
      "organization": "Institute of Interdisciplinary Mountain Research (IGF), Austria",
      "role": "contributor"
    },
    {
      "title": "Enrico Mattea",
      "organization": "University of Fribourg: Department of Geography, Switzerland",
      "role": "contributor"
    },
    {
      "title": "Kjetil Melvold",
      "organization": "Norwegian Water Resources and Energy Directorate (NVE), Norway",
      "role": "contributor"
    },
    {
      "title": "Laurent Mingo",
      "organization": "Blue System Integration Ltd., Canada",
      "role": "contributor"
    },
    {
      "title": "Christian Mitterer",
      "organization": "Institute of Interdisciplinary Mountain Research (IGF), Austria",
      "role": "contributor"
    },
    {
      "title": "Andri Moll",
      "organization": "University of Zürich, Switzerland",
      "role": "contributor"
    },
    {
      "title": "Kathrin Naegeli",
      "organization": "University of Fribourg, Switzerland",
      "role": "contributor"
    },
    {
      "title": "Francisco Navarro",
      "organization": "Universidad Politécnica de Madrid: Escuela Técnica Superior de Ingenieros de Telecomunicación (ETSIT), Spain",
      "role": "contributor"
    },
    {
      "title": "Ian Owens",
      "organization": "University of Canterbury: Department of Geography, New Zealand",
      "role": "contributor"
    },
    {
      "title": "Finnur Pálsson",
      "organization": "University of Iceland, Iceland",
      "role": "contributor"
    },
    {
      "title": "Rickard Pettersson",
      "organization": "Uppsala University, Sweden",
      "role": "contributor"
    },
    {
      "title": "Rainer Prinz",
      "organization": "University of Graz: Department of Geography and Regional Science, Austria",
      "role": "contributor"
    },
    {
      "title": "Ya.-M.K. Punning",
      "organization": "Estonian Academy of Sciences (USSR Academy of Sciences-Estonia): Institute of Geology, Estonia",
      "role": "contributor"
    },
    {
      "title": "Antoine Rabatel",
      "organization": "University Grenoble Alpes, France",
      "role": "contributor"
    },
    {
      "title": "Ian Raphael",
      "organization": "Dartmouth College, United States",
      "role": "contributor"
    },
    {
      "title": "David Rippin",
      "organization": "University of York, United Kingdom",
      "role": "contributor"
    },
    {
      "title": "Andrés Rivera",
      "organization": "Center for Scientific Studies (CECs), Chile",
      "role": "contributor"
    },
    {
      "title": "José Luis Rodríguez Lagos",
      "organization": "Center for Scientific Studies (CECs), Chile",
      "role": "contributor"
    },
    {
      "title": "John Sanders",
      "organization": "University of California, Berkeley: Department of Earth and Planetary Science, United States",
      "role": "contributor"
    },
    {
      "title": "Albane Saintenoy",
      "organization": "University of Paris-Sud, France",
      "role": "contributor"
    },
    {
      "title": "Arne Chr. Sætrang",
      "organization": "Norwegian Polar Institute, Norway",
      "role": "contributor"
    },
    {
      "title": "Marius Schaefer",
      "organization": "Austral University of Chile: Institute of Physical and Mathematical Sciences (ICFM), Chile",
      "role": "contributor"
    },
    {
      "title": "Stefan Scheiblauer",
      "organization": "Environmental Earth Observation Information Technology (ENVEO IT GmbH), Austria",
      "role": "contributor"
    },
    {
      "title": "Thomas V. Schuler",
      "organization": "University of Oslo, Norway",
      "role": "contributor"
    },
    {
      "title": "Heïdi Sevestre",
      "organization": "University of Saint Andrews, United Kingdom",
      "role": "contributor"
    },
    {
      "title": "Bernd Seiser",
      "organization": "Institute of Interdisciplinary Mountain Research (IGF), Austria",
      "role": "contributor"
    },
    {
      "title": "Ingvild Sørdal",
      "organization": "University of Oslo: Department of Geosciences, Norway",
      "role": "contributor"
    },
    {
      "title": "Jakob Steiner",
      "organization": "University of Utrecht: Faculty of Geosciences, Netherlands",
      "role": "contributor"
    },
    {
      "title": "Peter Alexander Stentoft",
      "organization": "Technical University of Denmark: Arctic Technology Centre (ARTEK), Denmark",
      "role": "contributor"
    },
    {
      "title": "Martin Stocker-Waldhuber",
      "organization": "Technical University of Denmark: Arctic Technology Centre (ARTEK), Denmark",
      "role": "contributor"
    },
    {
      "title": "Bernd Seiser",
      "organization": "Institute of Interdisciplinary Mountain Research (IGF), Austria",
      "role": "contributor"
    },
    {
      "title": "Shin Sugiyama",
      "organization": "Hokkaido University: Institute of Low Temperature Science, Japan",
      "role": "contributor"
    },
    {
      "title": "Rein Vaikmäe",
      "organization": "Tallinn University of Technology, Estonia",
      "role": "contributor"
    },
    {
      "title": "Evgeny Vasilenko",
      "organization": "Academy of Sciences of Uzbekistan, Uzbekistan",
      "role": "contributor"
    },
    {
      "title": "Nat J. Wilson",
      "organization": "Simon Fraser University: Department of Earth Sciences, Canada",
      "role": "contributor"
    },
    {
      "title": "Victor S. Zagorodnov",
      "organization": "Russian Academy of Sciences: Institute of Geography, Russia",
      "role": "contributor"
    },
    {
      "title": "Rodrigo Zamora",
      "organization": "Center for Scientific Studies (CECs), Chile",
      "role": "contributor"
    },
    {
      "title": "Michael Zemp",
      "organization": "University of Zürich, Switzerland",
      "role": "contributor"
    }
  ],
  "sources": [
    {
      "title": "Ice thickness measurements on South Tyrolean glaciers 1996-2014",
      "path": "https://doi.org/10.1594/PANGAEA.849390"
    },
    {
      "title": "Ground-penetrating radar (GPR) point measurements of ice thickness in Austria",
      "path": "https://doi.org/10.1594/PANGAEA.849497"
    },
    {
      "title": "Ice thickness of Kilimanjaro's Northern Ice Field mapped by ground-penetrating radar",
      "path": "https://doi.org/10.1594/PANGAEA.867908"
    },
    {
      "title": "Swiss Glacier Ice Thickness (release 2018)",
      "path": "https://doi.org/10.18750/icethickness.2018.r2018"
    },
    {
      "title": "Subglacial topography, ice thickness, and bathymetry of Kongsfjorden, northwestern Svalbard",
      "path": "https://doi.org/10.21334/npolar.2017.702ca4a7"
    },
    {
      "title": "Pre-IceBridge MCoRDS L2 Ice Thickness, Version 1",
      "path": "https://doi.org/10.5067/QKMTQ02C2U56"
    },
    {
      "title": "IceBridge HiCARS 1 L2 Geolocated Ice Thickness, Version 1",
      "path": "https://doi.org/10.5067/F5FGUT9F5089"
    },
    {
      "title": "IceBridge HiCARS 2 L2 Geolocated Ice Thickness, Version 1",
      "path": "https://doi.org/10.5067/9EBR2T0VXUDG"
    },
    {
      "title": "IceBridge MCoRDS L2 Ice Thickness, Version 1",
      "path": "https://doi.org/10.5067/GDQ0CUCVTE2Q"
    },
    {
      "title": "IceBridge PARIS L2 Ice Thickness, Version 1",
      "path": "https://doi.org/10.5067/OMEAKG6GIJNB"
    },
    {
      "title": "IceBridge WISE L2 Ice Thickness and Surface Elevation, Version 1",
      "path": "https://doi.org/10.5067/0ZBRL3GY720R"
    }
  ],
  "resources": [
    {
      "name": "t",
      "title": "Glacier thickness: Overview",
      "description": "Glacier-wide data and summary metadata for each ice thickness survey.",
      "path": "data/T.csv",
      "format": "csv",
      "mediatype": "text/csv",
      "encoding": "utf-8",
      "dialect": {
        "header": true,
        "delimiter": ",",
        "lineTerminator": "\n",
        "quoteChar": "\"",
        "doubleQuote": true
      },
      "profile": "tabular-data-resource",
      "schema": {
        "fields": [
          {
            "name": "GlaThiDa_ID",
            "title": "Survey identifier",
            "description": "Unique identifier assigned by the World Glacier Monitoring Service (WGMS) to each survey. Links the corresponding entries in tables `T`, `TT`, and `TTT`.\n\nNote: For data submission, use your own identifier that is unique within your submitted data.",
            "type": "integer",
            "constraints": {
              "required": true,
              "unique": true
            }
          },
          {
            "name": "POLITICAL_UNIT",
            "title": "Glacier country",
            "description": "Two-character code (ISO 3166 Alpha-2) of the country in which the glacier is located. A list of codes is available at https://www.iso.org/obp/ui/#search/code/.",
            "type": "string",
            "constraints": {
              "required": true,
              "enum": ["AF", "AX", "AL", "DZ", "AS", "AD", "AO", "AI", "AQ", "AG", "AR", "AM", "AW", "AU", "AT", "AZ", "BS", "BH", "BD", "BB", "BY", "BE", "BZ", "BJ", "BM", "BT", "BO", "BQ", "BA", "BW", "BV", "BR", "IO", "BN", "BG", "BF", "BI", "CV", "KH", "CM", "CA", "KY", "CF", "TD", "CL", "CN", "CX", "CC", "CO", "KM", "CD", "CG", "CK", "CR", "CI", "HR", "CU", "CW", "CY", "CZ", "DK", "DJ", "DM", "DO", "EC", "EG", "SV", "GQ", "ER", "EE", "SZ", "ET", "FK", "FO", "FJ", "FI", "FR", "GF", "PF", "TF", "GA", "GM", "GE", "DE", "GH", "GI", "GR", "GL", "GD", "GP", "GU", "GT", "GG", "GN", "GW", "GY", "HT", "HM", "VA", "HN", "HK", "HU", "IS", "IN", "ID", "IR", "IQ", "IE", "IM", "IL", "IT", "JM", "JP", "JE", "JO", "KZ", "KE", "KI", "KP", "KR", "KW", "KG", "LA", "LV", "LB", "LS", "LR", "LY", "LI", "LT", "LU", "MO", "MK", "MG", "MW", "MY", "MV", "ML", "MT", "MH", "MQ", "MR", "MU", "YT", "MX", "FM", "MD", "MC", "MN", "ME", "MS", "MA", "MZ", "MM", "NA", "NR", "NP", "NL", "NC", "NZ", "NI", "NE", "NG", "NU", "NF", "MP", "NO", "OM", "PK", "PW", "PS", "PA", "PG", "PY", "PE", "PH", "PN", "PL", "PT", "PR", "QA", "RE", "RO", "RU", "RW", "BL", "SH", "KN", "LC", "MF", "PM", "VC", "WS", "SM", "ST", "SA", "SN", "RS", "SC", "SL", "SG", "SX", "SK", "SI", "SB", "SO", "ZA", "GS", "SS", "ES", "LK", "SD", "SR", "SJ", "SE", "CH", "SY", "TW", "TJ", "TZ", "TH", "TL", "TG", "TK", "TO", "TT", "TN", "TR", "TM", "TC", "TV", "UG", "UA", "AE", "GB", "UM", "US", "UY", "UZ", "VU", "VE", "VN", "VG", "VI", "WF", "EH", "YE", "ZM", "ZW"]
            }
          },
          {
            "name": "GLACIER_NAME",
            "title": "Glacier name",
            "description": "The name of the glacier, written in capital letters (A-Z).\n\nIn order to ensure global interoperability of our dataset, glacier names should only contain the following characters: A-Z (A, B, C, D, E, F, G, H, I, J, K, L, M, N, O, P, Q, R, S, T, U, V, W, X, Y, Z), 0-9 (0, 1, 2, 3, 4, 5, 6, 7, 8, 9), - (dash), . (period), : (colon), () (parentheses), / (forward slash), ' (apostrophe), and  (space). Characters which do not fall into the given range should be transliterated. If no Latin name exists, use the International Organization for Standardization (ISO) standards for transliteration (https://www.iso.org/ics/01.140.10/x/). If the Latin name contains accents, apply the following rules (Å → AA, Æ → AE, Ä → AE, ð → D, Ø → OE, œ → OE, Ö → OE, ß → SS, þ → TH, Ü → UE) and neglect any remaining accents.\n\nIf a name is too long, a meaningful abbreviation should be used. In this case, the full name should be listed in `REMARKS`.",
            "type": "string",
            "constraints": {
              "maxLength": 60,
              "pattern": "[0-9A-Z\\-\\.:\\(\\)/']+( [0-9A-Z\\-\\.:\\(\\)/']+)*"
            }
          },
          {
            "name": "GLACIER_DB",
            "title": "Glacier database",
            "description": "The database to which `GLACIER_ID` refers, if provided.\n\n- GLIMS: Global Land Ice Measurements from Space\n- RGI: Randolph Glacier Inventory\n- WGI: World Glacier Inventory\n- FOG: Fluctuations of Glaciers\n- OTH: Other (full name should be listed in `REMARKS`)",
            "type": "string",
            "constraints": {
              "enum": ["GLIMS", "RGI", "WGI", "FOG", "OTH"]
            }
          },
          {
            "name": "GLACIER_ID",
            "title": "Glacier identifier",
            "description": "Identifier of the glacier in the database specified in `GLACIER_DB`. For the Randolph Glacier Inventory (RGI), the database version should be included as part of the glacier identifier (e.g. 'RGI60-07.00244'). Cannot contain double quotes (\") or whitespace.",
            "type": "string",
            "constraints": {
              "maxLength": 14,
              "pattern": "[^\"\\s]+"
            }
          },
          {
            "name": "LAT",
            "title": "Glacier latitude (°, WGS 84)",
            "description": "Latitude in decimal degrees (°, WGS 84), with up to six decimal places. Positive values indicate the northern hemisphere and negative values indicate the southern hemisphere. Three decimal places may not be sufficient depending on the proximity to other glaciers.\n\nThe point (`LAT`, `LON`) should be in the upper part of the glacier ablation area, in the main channel, and sufficiently high so as not to be lost if the glacier retreats.",
            "type": "number",
            "constraints": {
              "required": true,
              "minimum": -90,
              "maximum": 90,
              "pattern": "\\-?[0-9]*(\\.[0-9]{1,6})?"
            }
          },
          {
            "name": "LON",
            "title": "Glacier longitude (°, WGS 84)",
            "description": "Longitude in decimal degrees (°, WGS 84), with up to six decimal places. Positive values indicate east of the zero meridian and negative values indicate west of the zero meridian. Three decimal places may not be sufficient depending on the proximity to other glaciers.\n\nThe point (`LAT`, `LON`) should be in the upper part of the glacier ablation area, in the main channel, and sufficiently high so as not to be lost if the glacier retreats.",
            "type": "number",
            "constraints": {
              "required": true,
              "minimum": -180,
              "maximum": 180,
              "pattern": "^\\-?[0-9]*(\\.[0-9]{1,6})?$"
            }
          },
          {
            "name": "SURVEY_DATE",
            "title": "Survey date",
            "description": "Date of the survey, formatted as YYYYMMDD (4-digit year, 2-digit month, and 2-digit day). Use '99' to designate unknown day or month (e.g. 20100199, 20109999). For surveys spanning multiple dates, the first date should be given and the dates further described in `REMARKS`.",
            "type": "string",
            "constraints": {
              "pattern": "[0-2][0-9]{3}(0[0-9]|1[0-2]|99)([0-2][0-9]|3[0-1]|99)"
            }
          },
          {
            "name": "ELEVATION_DATE",
            "title": "Surface elevation date",
            "description": "Date of the provided surface elevations (e.g. TT.LOWER_BOUND, TT.UPPER_BOUND, TTT.ELEVATION), formatted as YYYYMMDD (4-digit year, 2-digit month, and 2-digit day). Use '99' to designate unknown day or month (e.g. 20100199, 20109999). For elevations spanning multiple dates, the first date should be given and the dates further described in `REMARKS`. The source – for example, the digital elevation model (DEM) from which elevations were extracted, or whether elevations were measured with satellite navigation during the survey – should be described in `REMARKS`.",
            "type": "string",
            "constraints": {
              "pattern": "[0-2][0-9]{3}(0[0-9]|1[0-2]|99)([0-2][0-9]|3[0-1]|99)"
            }
          },
          {
            "name": "AREA",
            "title": "Total area (km^2)",
            "description": "Total glacier area (km^2), with up to five decimal places. If the date for the area is different from `ELEVATION_DATE`, it should be noted in `REMARKS`.",
            "type": "number",
            "constraints": {
              "minimum": 0,
              "pattern": "[0-9]*(\\.[0-9]{1,5})?"
            }
          },
          {
            "name": "MEAN_SLOPE",
            "title": "Mean glacier slope (°)",
            "description": "Mean surface slope over the entire glacier (°), as an integer. If the date for the slope is different from `ELEVATION_DATE`, it should be noted in `REMARKS`.",
            "type": "integer",
            "constraints": {
              "minimum": 0,
              "maximum": 90
            }
          },
          {
            "name": "MEAN_THICKNESS",
            "title": "Mean glacier thickness (m)",
            "description": "Mean ice thickness (m), as an integer. Ideally, this represents the interpolated mean over the entire glacier rather than the mean of the individual thickness measurements. Otherwise, it should be noted in `REMARKS` and `DATA_FLAG` should be set to '2'.",
            "type": "integer",
            "constraints": {
              "minimum": 0,
              "maximum": 9999
            }
          },
          {
            "name": "MEAN_THICKNESS_UNCERTAINTY",
            "title": "Uncertainty of mean glacier thickness (m)",
            "description": "Estimated random error of `MEAN_THICKNESS` (m), as an integer.",
            "type": "integer",
            "constraints": {
              "minimum": 0,
              "maximum": 9999
            }
          },
          {
            "name": "MAXIMUM_THICKNESS",
            "title": "Maximum glacier thickness (m)",
            "description": "Maximum ice thickness (m), as an integer.",
            "type": "integer",
            "constraints": {
              "minimum": 0,
              "maximum": 9999
            }
          },
          {
            "name": "MAX_THICKNESS_UNCERTAINTY",
            "title": "Uncertainty of maximum glacier thickness (m)",
            "description": "Estimated random error of `MAXIMUM_THICKNESS` (m), as an integer.",
            "type": "integer",
            "constraints": {
              "minimum": 0,
              "maximum": 9999
            }
          },
          {
            "name": "SURVEY_METHOD",
            "title": "Survey method",
            "description": "Survey method used.\n\n- DRI: Drilling\n- DRIh: Drilling (hydrothermal)\n- DRIm: Drilling (mechanical)\n- GPR: Ground penetrating radar\n- GPRa: Ground penetrating radar (airborne)\n- GPRt: Ground penetrating radar (terrestrial)\n- GEL: Geoelectric\n- EM: Electromagnetic\n- HYM: Hydrometric\n- SEI: Seismic\n- OTH: Other (should be described in `SURVEY_METHOD_DETAILS`)",
            "type": "string",
            "constraints": {
              "enum": ["DRI", "DRIh", "DRIm", "GPR", "GPRa", "GPRt", "GEL", "EM", "HYM", "SEI", "OTH"]
            }
          },
          {
            "name": "SURVEY_METHOD_DETAILS",
            "title": "Survey method details",
            "description": "Details useful to assess the uncertainty of the ice thickness measurements. For example, 'GPR full-range system, 100-MHz shielded antenna, constant wave velocity in ice of 0.168 m per ns.' Cannot contain double quotes (\") or whitespace other than space.",
            "type": "string",
            "constraints": {
              "pattern": "[^\"\\s]+( [^\"\\s]+)*"
            }
          },
          {
            "name": "NUMBER_OF_SURVEY_POINTS",
            "title": "Number of survey points",
            "description": "Total number of survey points taken. Should be equal to either the number of points in table `TTT`, the number of points originally surveyed, or the number of points used to estimate the mean thickness over the glacier (`T.MEAN_THICKNESS`) or elevation bands (`TT.MEAN_THICKNESS`). The specific meaning should be given in `REMARKS`.",
            "type": "integer",
            "constraints": {
              "minimum": 0
            }
          },
          {
            "name": "NUMBER_OF_SURVEY_PROFILES",
            "title": "Number of survey profiles",
            "description": "Total number of survey profiles taken. Should be equal to either the number of listed profiles (i.e. the number of unique values of `TTT.PROFILE_ID`), the number of profiles originally surveyed, or the number of profiles used to estimate the mean thickness over the glacier (`T.MEAN_THICKNESS`) or elevation bands (`TT.MEAN_THICKNESS`). The specific meaning should be given in `REMARKS`.",
            "type": "integer",
            "constraints": {
              "minimum": 0
            }
          },
          {
            "name": "TOTAL_LENGTH_OF_SURVEY_PROFILES",
            "title": "Total length of survey profiles (km)",
            "description": "Total length of survey profiles taken (km), with up to two decimal places. Should be equal to either the total length of the listed profiles (i.e. the sum of the lengths of each profile, `TTT.PROFILE_ID`, based on the coordinates of the points, `TTT.POINT_LAT` and `TTT.POINT_LON`), the total length of the profiles originally surveyed, or the total length of the profiles used to estimate the mean thickness over the glacier (`T.MEAN_THICKNESS`) or elevation bands (`TT.MEAN_THICKNESS`). The specific meaning should be given in `REMARKS`.",
            "type": "number",
            "constraints": {
              "minimum": 0,
              "pattern": "[0-9]*(\\.[0-9]{1,2})?"
            }
          },
          {
            "name": "INTERPOLATION_METHOD",
            "title": "Interpolation method",
            "description": "Interpolation method used to extrapolate ice thickness from survey points to the entire glacier.\n\n- IDW: Inverse distance weighting\n- KRG: Kriging\n- ANU: ANUDEM, including ArcInfo TOPOGRID and ArcGIS Topo To Raster)\n- TRI: Triangulation, including Triangulated irregular network (TIN)\n- OTH: Other (should be described in `REMARKS`)",
            "type": "string",
            "constraints": {
              "enum": ["IDW", "KRG", "ANU", "TRI", "OTH"]
            }
          },
          {
            "name": "INVESTIGATOR",
            "title": "Investigators",
            "description": "Name of the people or agencies that performed the survey or processed the data. For people, both first and last name should be given, complemented by other identifiers such as their affiliation or ORCID (http://orcid.org). Cannot contain double quotes (\") or whitespace other than space.",
            "type": "string",
            "constraints": {
              "pattern": "[^\"\\s]+( [^\"\\s]+)*"
            }
          },
          {
            "name": "SPONSORING_AGENCY",
            "title": "Sponsoring agencies",
            "description": "Name and location of the agencies that sponsored the survey or hold the data. Cannot contain double quotes (\") or whitespace other than space.",
            "type": "string",
            "constraints": {
              "pattern": "[^\"\\s]+( [^\"\\s]+)*"
            }
          },
          {
            "name": "REFERENCES",
            "title": "References",
            "description": "References to published literature directly relating to the survey, including the Digital Object Identifier (DOI) or URL when available. Cannot contain double quotes (\") or whitespace other than space.",
            "type": "string",
            "constraints": {
              "pattern": "[^\"\\s]+( [^\"\\s]+)*"
            }
          },
          {
            "name": "DATA_FLAG",
            "title": "Data flag",
            "description": "Whether glacier thickness is erroneous or limited to parts of the glacier. All issues should be described in `REMARKS`.\n\n- 1: Erroneous glacier thickness\n- 2: Glacier thickness limited to parts of glacier\n- 3: Other issue",
            "type": "integer",
            "constraints": {
              "enum": [1, 2, 3]
            }
          },
          {
            "name": "REMARKS",
            "title": "Remarks",
            "description": "Any other important information about the survey not included elsewhere. Cannot contain double quotes (\") or whitespace other than space.",
            "type": "string",
            "constraints": {
              "pattern": "[^\"\\s]+( [^\"\\s]+)*"
            }
          }
        ],
        "missingValues": [""],
        "primaryKey": ["GlaThiDa_ID"]
      }
    },
    {
      "name": "tt",
      "title": "Glacier thickness: By elevation band",
      "description": "Glacier thickness by bands of surface elevation, typically derived from maps of ice thickness.",
      "path": "data/TT.csv",
      "format": "csv",
      "mediatype": "text/csv",
      "encoding": "utf-8",
      "dialect": {
        "header": true,
        "delimiter": ",",
        "lineTerminator": "\n",
        "quoteChar": "\"",
        "doubleQuote": true
      },
      "profile": "tabular-data-resource",
      "schema": {
        "fields": [
          {
            "name": "GlaThiDa_ID",
            "title": "Survey identifier",
            "description": "Unique identifier assigned by the World Glacier Monitoring Service (WGMS) to each survey. Links the corresponding entries in tables `T`, `TT`, and `TTT`.\n\nNote: For data submission, use your own identifier that is unique within your submitted data.",
            "type": "integer",
            "constraints": {
              "required": true
            }
          },
          {
            "name": "POLITICAL_UNIT",
            "title": "Glacier country",
            "description": "Two-character code (ISO 3166 Alpha-2) of the country in which the glacier is located. A list of codes is available at https://www.iso.org/obp/ui/#search/code/.",
            "type": "string",
            "constraints": {
              "required": true,
              "enum": ["AF", "AX", "AL", "DZ", "AS", "AD", "AO", "AI", "AQ", "AG", "AR", "AM", "AW", "AU", "AT", "AZ", "BS", "BH", "BD", "BB", "BY", "BE", "BZ", "BJ", "BM", "BT", "BO", "BQ", "BA", "BW", "BV", "BR", "IO", "BN", "BG", "BF", "BI", "CV", "KH", "CM", "CA", "KY", "CF", "TD", "CL", "CN", "CX", "CC", "CO", "KM", "CD", "CG", "CK", "CR", "CI", "HR", "CU", "CW", "CY", "CZ", "DK", "DJ", "DM", "DO", "EC", "EG", "SV", "GQ", "ER", "EE", "SZ", "ET", "FK", "FO", "FJ", "FI", "FR", "GF", "PF", "TF", "GA", "GM", "GE", "DE", "GH", "GI", "GR", "GL", "GD", "GP", "GU", "GT", "GG", "GN", "GW", "GY", "HT", "HM", "VA", "HN", "HK", "HU", "IS", "IN", "ID", "IR", "IQ", "IE", "IM", "IL", "IT", "JM", "JP", "JE", "JO", "KZ", "KE", "KI", "KP", "KR", "KW", "KG", "LA", "LV", "LB", "LS", "LR", "LY", "LI", "LT", "LU", "MO", "MK", "MG", "MW", "MY", "MV", "ML", "MT", "MH", "MQ", "MR", "MU", "YT", "MX", "FM", "MD", "MC", "MN", "ME", "MS", "MA", "MZ", "MM", "NA", "NR", "NP", "NL", "NC", "NZ", "NI", "NE", "NG", "NU", "NF", "MP", "NO", "OM", "PK", "PW", "PS", "PA", "PG", "PY", "PE", "PH", "PN", "PL", "PT", "PR", "QA", "RE", "RO", "RU", "RW", "BL", "SH", "KN", "LC", "MF", "PM", "VC", "WS", "SM", "ST", "SA", "SN", "RS", "SC", "SL", "SG", "SX", "SK", "SI", "SB", "SO", "ZA", "GS", "SS", "ES", "LK", "SD", "SR", "SJ", "SE", "CH", "SY", "TW", "TJ", "TZ", "TH", "TL", "TG", "TK", "TO", "TT", "TN", "TR", "TM", "TC", "TV", "UG", "UA", "AE", "GB", "UM", "US", "UY", "UZ", "VU", "VE", "VN", "VG", "VI", "WF", "EH", "YE", "ZM", "ZW"]
            }
          },
          {
            "name": "GLACIER_NAME",
            "title": "Glacier name",
            "description": "The name of the glacier, written in capital letters (A-Z).\n\nIn order to ensure global interoperability of our dataset, glacier names should only contain the following characters: A-Z (A, B, C, D, E, F, G, H, I, J, K, L, M, N, O, P, Q, R, S, T, U, V, W, X, Y, Z), 0-9 (0, 1, 2, 3, 4, 5, 6, 7, 8, 9), - (dash), . (period), : (colon), () (parentheses), / (forward slash), ' (apostrophe), and  (space). Characters which do not fall into the given range should be transliterated. If no Latin name exists, use the International Organization for Standardization (ISO) standards for transliteration (https://www.iso.org/ics/01.140.10/x/). If the Latin name contains accents, apply the following rules (Å → AA, Æ → AE, Ä → AE, ð → D, Ø → OE, œ → OE, Ö → OE, ß → SS, þ → TH, Ü → UE) and neglect any remaining accents.\n\nIf a name is too long, a meaningful abbreviation should be used. In this case, the full name should be listed in `REMARKS`.",
            "type": "string",
            "constraints": {
              "maxLength": 60,
              "pattern": "[0-9A-Z\\-\\.:\\(\\)/']+( [0-9A-Z\\-\\.:\\(\\)/']+)*"
            }
          },
          {
            "name": "SURVEY_DATE",
            "title": "Survey date",
            "description": "Date that the ice thickness was surveyed in the elevation band, formatted as YYYYMMDD (4-digit year, 2-digit month, and 2-digit day). Use '99' to designate unknown day or month (e.g. 20100199, 20109999). For surveys spanning multiple dates, the first date should be given and the dates further described in `REMARKS`.",
            "type": "string",
            "constraints": {
              "pattern": "[0-2][0-9]{3}(0[0-9]|1[0-2]|99)([0-2][0-9]|3[0-1]|99)"
            }
          },
          {
            "name": "LOWER_BOUND",
            "title": "Lower elevation bound (m)",
            "description": "Lower boundary of the surface elevation band (m), as an integer. Elevations should be relative to mean sea level (geoid) unless noted in `REMARKS` or `T.REMARKS`.",
            "type": "integer",
            "constraints": {
              "required": true,
              "maximum": 9999
            }
          },
          {
            "name": "UPPER_BOUND",
            "title": "Upper elevation bound (m)",
            "description": "Upper boundary of the surface elevation band (m), as an integer. Elevations should be relative to mean sea level (geoid) unless noted in `REMARKS` or `T.REMARKS`.",
            "type": "integer",
            "constraints": {
              "required": true,
              "maximum": 9999
            }
          },
          {
            "name": "AREA",
            "title": "Total band area (km^2)",
            "description": "Total glacier area (km^2), with up to five decimal places, for the elevation band. If the date for the area is different from `ELEVATION_DATE`, it should be noted in `REMARKS`.",
            "type": "number",
            "constraints": {
              "minimum": 0,
              "pattern": "[0-9]*(\\.[0-9]{1,5})?"
            }
          },
          {
            "name": "MEAN_SLOPE",
            "title": "Mean band slope (°)",
            "description": "Mean surface slope (°), as an integer, for the elevation band. If the date for the slope is different from `ELEVATION_DATE`, it should be noted in `REMARKS`.",
            "type": "integer",
            "constraints": {
              "minimum": 0,
              "maximum": 90
            }
          },
          {
            "name": "MEAN_THICKNESS",
            "title": "Mean band thickness (m)",
            "description": "Mean ice thickness (m), as an integer, for the elevation band. Ideally, this is the interpolated mean of the entire elevation band rather than the mean of the individual thickness measurements. Otherwise, it should be noted in `REMARKS` and `DATA_FLAG` should be set to '2'.",
            "type": "integer",
            "constraints": {
              "required": true,
              "minimum": 0,
              "maximum": 9999
            }
          },
          {
            "name": "MEAN_THICKNESS_UNCERTAINTY",
            "title": "Uncertainty of mean band thickness (m)",
            "description": "Estimated random error of `MEAN_THICKNESS` (m), as an integer.",
            "type": "integer",
            "constraints": {
              "minimum": 0,
              "maximum": 9999
            }
          },
          {
            "name": "MAXIMUM_THICKNESS",
            "title": "Maximum band thickness (m)",
            "description": "Maximum ice thickness (m), as an integer, for the elevation band.",
            "type": "integer",
            "constraints": {
              "minimum": 0,
              "maximum": 9999
            }
          },
          {
            "name": "MAX_THICKNESS_UNCERTAINTY",
            "title": "Uncertainty of maximum band thickness (m)",
            "description": "Estimated random error of `MAXIMUM_THICKNESS` (m), as an integer.",
            "type": "integer",
            "constraints": {
              "minimum": 0,
              "maximum": 9999
            }
          },
          {
            "name": "DATA_FLAG",
            "title": "Data flag",
            "description": "Whether ice thickness is erroneous or limited to parts of the elevation band. Issues specific to the elevation band should be described in `REMARKS` while issues common to all elevation bands should be described in `T.REMARKS`.\n\n- 1: Erroneous ice thickness\n- 2: Ice thickness limited to parts of the elevation band\n- 3: Other issue",
            "type": "integer",
            "constraints": {
              "enum": [1, 2, 3]
            }
          },
          {
            "name": "REMARKS",
            "title": "Remarks",
            "description": "Any other important information about the survey – specific to the elevation band – not included elsewhere. Cannot contain double quotes (\") or whitespace other than space.",
            "type": "string",
            "constraints": {
              "pattern": "[^\"\\s]+( [^\"\\s]+)*"
            }
          }
        ],
        "missingValues": [""],
        "uniqueKeys": [
          ["GlaThiDa_ID", "LOWER_BOUND", "UPPER_BOUND"]
        ],
        "foreignKeys": [
          {
            "fields": ["GlaThiDa_ID", "POLITICAL_UNIT", "GLACIER_NAME"],
            "reference": {
              "resource": "t",
              "fields": ["GlaThiDa_ID", "POLITICAL_UNIT", "GLACIER_NAME"]
            }
          }
        ]
      }
    },
    {
      "name": "ttt",
      "title": "Glacier thickness: Point measurements",
      "description": "Glacier thickness measured at specific points.",
      "path": "data/TTT.csv",
      "format": "csv",
      "mediatype": "text/csv",
      "encoding": "utf-8",
      "dialect": {
        "header": true,
        "delimiter": ",",
        "lineTerminator": "\n",
        "quoteChar": "\"",
        "doubleQuote": true
      },
      "profile": "tabular-data-resource",
      "schema": {
        "fields": [
          {
            "name": "GlaThiDa_ID",
            "title": "Survey identifier",
            "description": "Unique identifier assigned by the World Glacier Monitoring Service (WGMS) to each survey. Links the corresponding entries in tables `T`, `TT`, and `TTT`.\n\nNote: For data submission, use your own identifier that is unique within your submitted data.",
            "type": "integer",
            "constraints": {
              "required": true
            }
          },
          {
            "name": "POLITICAL_UNIT",
            "title": "Glacier country",
            "description": "Two-character code (ISO 3166 Alpha-2) of the country in which the glacier is located. A list of codes is available at https://www.iso.org/obp/ui/#search/code/.",
            "type": "string",
            "constraints": {
              "required": true,
              "enum": ["AF", "AX", "AL", "DZ", "AS", "AD", "AO", "AI", "AQ", "AG", "AR", "AM", "AW", "AU", "AT", "AZ", "BS", "BH", "BD", "BB", "BY", "BE", "BZ", "BJ", "BM", "BT", "BO", "BQ", "BA", "BW", "BV", "BR", "IO", "BN", "BG", "BF", "BI", "CV", "KH", "CM", "CA", "KY", "CF", "TD", "CL", "CN", "CX", "CC", "CO", "KM", "CD", "CG", "CK", "CR", "CI", "HR", "CU", "CW", "CY", "CZ", "DK", "DJ", "DM", "DO", "EC", "EG", "SV", "GQ", "ER", "EE", "SZ", "ET", "FK", "FO", "FJ", "FI", "FR", "GF", "PF", "TF", "GA", "GM", "GE", "DE", "GH", "GI", "GR", "GL", "GD", "GP", "GU", "GT", "GG", "GN", "GW", "GY", "HT", "HM", "VA", "HN", "HK", "HU", "IS", "IN", "ID", "IR", "IQ", "IE", "IM", "IL", "IT", "JM", "JP", "JE", "JO", "KZ", "KE", "KI", "KP", "KR", "KW", "KG", "LA", "LV", "LB", "LS", "LR", "LY", "LI", "LT", "LU", "MO", "MK", "MG", "MW", "MY", "MV", "ML", "MT", "MH", "MQ", "MR", "MU", "YT", "MX", "FM", "MD", "MC", "MN", "ME", "MS", "MA", "MZ", "MM", "NA", "NR", "NP", "NL", "NC", "NZ", "NI", "NE", "NG", "NU", "NF", "MP", "NO", "OM", "PK", "PW", "PS", "PA", "PG", "PY", "PE", "PH", "PN", "PL", "PT", "PR", "QA", "RE", "RO", "RU", "RW", "BL", "SH", "KN", "LC", "MF", "PM", "VC", "WS", "SM", "ST", "SA", "SN", "RS", "SC", "SL", "SG", "SX", "SK", "SI", "SB", "SO", "ZA", "GS", "SS", "ES", "LK", "SD", "SR", "SJ", "SE", "CH", "SY", "TW", "TJ", "TZ", "TH", "TL", "TG", "TK", "TO", "TT", "TN", "TR", "TM", "TC", "TV", "UG", "UA", "AE", "GB", "UM", "US", "UY", "UZ", "VU", "VE", "VN", "VG", "VI", "WF", "EH", "YE", "ZM", "ZW"]
            }
          },
          {
            "name": "GLACIER_NAME",
            "title": "Glacier name",
            "description": "The name of the glacier, written in capital letters (A-Z).\n\nIn order to ensure global interoperability of our dataset, glacier names should only contain the following characters: A-Z (A, B, C, D, E, F, G, H, I, J, K, L, M, N, O, P, Q, R, S, T, U, V, W, X, Y, Z), 0-9 (0, 1, 2, 3, 4, 5, 6, 7, 8, 9), - (dash), . (period), : (colon), () (parentheses), / (forward slash), ' (apostrophe), and  (space). Characters which do not fall into the given range should be transliterated. If no Latin name exists, use the International Organization for Standardization (ISO) standards for transliteration (https://www.iso.org/ics/01.140.10/x/). If the Latin name contains accents, apply the following rules (Å → AA, Æ → AE, Ä → AE, ð → D, Ø → OE, œ → OE, Ö → OE, ß → SS, þ → TH, Ü → UE) and neglect any remaining accents.\n\nIf a name is too long, a meaningful abbreviation should be used. In this case, the full name should be listed in `REMARKS`.",
            "type": "string",
            "constraints": {
              "maxLength": 60,
              "pattern": "[0-9A-Z\\-\\.:\\(\\)/']+( [0-9A-Z\\-\\.:\\(\\)/']+)*"
            }
          },
          {
            "name": "SURVEY_DATE",
            "title": "Survey date",
            "description": "Date that the point was surveyed, formatted as YYYYMMDD (4-digit year, 2-digit month, and 2-digit day). Use '99' to designate unknown day or month (e.g. 20100199, 20109999).",
            "type": "string",
            "constraints": {
              "pattern": "[0-2][0-9]{3}(0[0-9]|1[0-2]|99)([0-2][0-9]|3[0-1]|99)"
            }
          },
          {
            "name": "PROFILE_ID",
            "title": "Profile identifier",
            "description": "Identifier for the survey profile which the point belongs to (if applicable). Should serve to both distinguish between different profiles and to sort the profiles in the order in which they were collected (e.g. 1, 2, 3, ...).",
            "type": "string",
            "constraints": {
              "maxLength": 8
            }
          },
          {
            "name": "POINT_ID",
            "title": "Point identifier",
            "description": "Identifier for the point. Should serve to both distinguish between different points and to sort the profiles in the order in which they were collected (e.g. 1, 2, 3, ...).",
            "type": "string",
            "constraints": {
              "required": true,
              "maxLength": 8
            }
          },
          {
            "name": "POINT_LAT",
            "title": "Point latitude (°, WGS 84)",
            "description": "Latitude in decimal degrees (°, WGS 84), with up to seven decimal places. Positive values indicate the northern hemisphere and negative values indicate the southern hemisphere.",
            "type": "number",
            "constraints": {
              "required": true,
              "minimum": -90,
              "maximum": 90,
              "pattern": "\\-?[0-9]*(\\.[0-9]{1,7})?"
            }
          },
          {
            "name": "POINT_LON",
            "title": "Point longitude (°, WGS 84)",
            "description": "Longitude in decimal degrees (°, WGS 84), with up to seven decimal places. Positive values indicate east of the zero meridian and negative values indicate west of the zero meridian.",
            "type": "number",
            "constraints": {
              "required": true,
              "minimum": -180,
              "maximum": 180,
              "pattern": "\\-?[0-9]*(\\.[0-9]{1,7})?"
            }
          },
          {
            "name": "ELEVATION",
            "title": "Point elevation (m)",
            "description": "Point elevation (m), as an integer. Elevations should be relative to mean sea level (geoid) unless noted in `REMARKS` or `T.REMARKS`.",
            "type": "integer",
            "constraints": {
              "maximum": 999999
            }
          },
          {
            "name": "THICKNESS",
            "title": "Ice thickness (m)",
            "description": "Ice thickness (m), as an integer, measured at the point.",
            "type": "integer",
            "constraints": {
              "required": true,
              "minimum": 0,
              "maximum": 9999
            }
          },
          {
            "name": "THICKNESS_UNCERTAINTY",
            "title": "Uncertainty of ice thickness (m)",
            "description": "Estimated random error of `THICKNESS` (m), as an integer.",
            "type": "integer",
            "constraints": {
              "minimum": 0,
              "maximum": 9999
            }
          },
          {
            "name": "DATA_FLAG",
            "title": "Data flag",
            "description": "Whether ice thickness is erroneous. Issues specific to the point should be described in `REMARKS` while issues common to all points in the survey should be described in `T.REMARKS`.\n\n- 1: Erroneous ice thickness\n- 3: Other issue",
            "type": "integer",
            "constraints": {
              "enum": [1, 3]
            }
          },
          {
            "name": "REMARKS",
            "title": "Remarks",
            "description": "Any other important information about the survey – specific to the point – not included elsewhere. Cannot contain double quotes (\") or whitespace other than space.",
            "type": "string",
            "constraints": {
              "pattern": "[^\"\\s]+( [^\"\\s]+)*"
            }
          }
        ],
        "missingValues": [""],
        "uniqueKeys": [
          ["GlaThiDa_ID", "PROFILE_ID", "POINT_ID"]
        ],
        "foreignKeys": [
          {
            "fields": ["GlaThiDa_ID", "POLITICAL_UNIT", "GLACIER_NAME"],
            "reference": {
              "resource": "t",
              "fields": ["GlaThiDa_ID", "POLITICAL_UNIT", "GLACIER_NAME"]
            }
          }
        ]
      }
    }
  ]
}
